{
  "type": "service_account",
  "project_id": "wide-ratio-340918",
  "private_key_id": "2ec085debe878213e9f1c50e1593066f3a96db1f",
  "private_key": "-----BEGIN PRIVATE KEY-----\nMIIEuwIBADANBgkqhkiG9w0BAQEFAASCBKUwggShAgEAAoIBAQC953+xdBDuexjr\n2A1FkAIkzsOvJIyZxVvEK0/81CYEKmlEEWJmRlc4gcjVadPBNJ4pNdweWJyPNEBw\nV0ueeRVL+c8Y7fqzPmNrvobmUaIrUcfOAcw447KsfG0yrhRS/xxZ++FKac02cU8g\nPacCicRhxUfzYQquIXSbY0c4jImc8azRbbUeS3ihKDfOsSlYqwZJigXdBOUFCEzd\nXdGhyaSbv0gVJ19g4nezA0z1fPFqcELEmNqybusbq07kIpO/+OhJuiI9Uk41qAAw\nBs7CsLEZU4T0WSd3gLKXAwa/pnfxyQt5hAsO8PiFT9JYWurFtG+4t4KmBb30JEI4\nLBj7r/M9AgMBAAECgf9iPF7R2srnbjPjzJZ+rrb/d/YLWrg8QSTJnsLB4mpaT5Yk\nn/4iV659sTfFLkKAr25GLE1D97dOXQJmP1RxE5+C9wAGCfCl7Ok4HFcZ8kU6tco4\nWUgCbuvaBRXlj0wYx5YHiLJLXm/JlWYP/mbUMnAa/vKnGELb0QTuypENHVzt9qBQ\niEkGVzCbaO5KoOFdbY/t5MXaBHSsGA8x2nB3RLD0mUMC2TDffNmbXLosXdN/oWWh\nL3RJdO6iGLnPlUf1HV49elBTLyRhLr2Q5NnO3kUYtBtXCkJf3RuJrMv1vpAC3q32\nVeuM6UKbu/AuwBZfROJRbilCQswEVEav5fQ0tZ0CgYEA3ZtbfVzZXiNKl5R/UiIu\nNdb69IJb+O4QRU69c/jHUyGMazmYGLSTNmYCohSqfmSd88Q0bmDC8ItEZYoUNdfT\nqUSqVdx8zAGMUA/rfg60VZbUPTeEm3ZJODstegmchgSL8tLtMcsmok7cva2+W1ez\nojjZ2p6xtceAePQtUFJqdbMCgYEA22CRv6dhq9pTDv4D8S9Dg4ltZln17ctX0s4J\nL3oTIu0SrzeVg2oZqchP1OyEBV8+NnkNi/4q3WS2lHk3nO5IyyzZtHUiwkmSwbu9\nKuSUpZa1SmpAMgD6npaGMo9vY+aae9cp/jbcYIftd7FKBNZBNHoC1wY8c1bsrZ49\nD7WFW08CgYEAiLMsBbH/2EU23zhYLect0EJz/d5oM69O1CIVVfOxqUM5pm8Ztqu1\nX8ofd7H91gflM5jlquz/c3jFUUmS2//t7i2QUXS4evO9hSm8377cWSu4cqbLo0ad\nNhWzIOPK7RTi64BXlu61P0wceNkzYo9AHSKqqGRaRULyqiodxb2BNGcCgYBHHXYB\n+AO8jwjP2l5yyAyNznYNcOo9TObKaoolvuAHOW0OKemo8TMii9H9RzLA/xAO3o0a\nrak9ndFmLiluEPy+CGsGidZbvzf436BCEFlzmHhqiCkJTLHxyP/10fOdIftAXA67\n3xLvpADCBVHmYYI/vbG//MCJ70rIOXy34/M4FwKBgDFl5KsPZoQd0q6vSfCr6oEj\nM9bvZWc+0YNsDbQnBNhcJ1qm7Ekwz8JEhGeMSQcvkpXwv6lHUtKdL0ltSc+bM0zY\nZuHoVgeFP/BwMLWveoIe1RwBqR8QMCuFr47V0HXGuSRWs5FaFjT5U23I/qqGPTbh\ntUDay7r6oe4pCFeFljg9\n-----END PRIVATE KEY-----\n",
  "client_email": "geekhub-ci-gitlab@wide-ratio-340918.iam.gserviceaccount.com",
  "client_id": "108919886926388167648",
  "auth_uri": "https://accounts.google.com/o/oauth2/auth",
  "token_uri": "https://oauth2.googleapis.com/token",
  "auth_provider_x509_cert_url": "https://www.googleapis.com/oauth2/v1/certs",
  "client_x509_cert_url": "https://www.googleapis.com/robot/v1/metadata/x509/geekhub-ci-gitlab%40wide-ratio-340918.iam.gserviceaccount.com"
}
